{
  "project_info": {
    "project_number": "708349995138",
    "firebase_url": "https://daysschedule-804b3.firebaseio.com",
    "project_id": "daysschedule-804b3",
    "storage_bucket": "daysschedule-804b3.appspot.com"
  },
  "client": [
    {
      "client_info": {
        "mobilesdk_app_id": "1:708349995138:android:716cbb1ec83d3d03",
        "android_client_info": {
          "package_name": "com.example.azer.a4daysschedule"
        }
      },
      "oauth_client": [
        {
          "client_id": "708349995138-8ru2g94jl4525dbt46m88ccl482v5rm9.apps.googleusercontent.com",
          "client_type": 1,
          "android_info": {
            "package_name": "com.example.azer.a4daysschedule",
            "certificate_hash": "af701f0764fbc9f59b862c20b1fb8c9f4c7064c0"
          }
        },
        {
          "client_id": "708349995138-3k4d2scpqu2trlab2d2b00alh8u87066.apps.googleusercontent.com",
          "client_type": 3
        }
      ],
      "api_key": [
        {
          "current_key": "AIzaSyCvAXPtCWmRPPc5Xc7kUFFMb8dbPABlXxw"
        }
      ],
      "services": {
        "analytics_service": {
          "status": 1
        },
        "appinvite_service": {
          "status": 2,
          "other_platform_oauth_client": [
            {
              "client_id": "708349995138-3k4d2scpqu2trlab2d2b00alh8u87066.apps.googleusercontent.com",
              "client_type": 3
            }
          ]
        },
        "ads_service": {
          "status": 2
        }
      }
    }
  ],
  "configuration_version": "1"
}